<svg width="535" height="468" viewBox="0 0 535 468" fill="none" xmlns="http://www.w3.org/2000/svg">
<path d="M0.520001 365.208H22.984V465H0.520001V365.208ZM44.6425 391.848C48.2905 390.792 52.9945 389.832 58.7545 388.968C64.5145 388.008 70.5625 387.528 76.8985 387.528C83.3305 387.528 88.6585 388.392 92.8825 390.12C97.2025 391.752 100.611 394.104 103.107 397.176C105.603 400.248 107.379 403.896 108.435 408.12C109.491 412.344 110.019 417.048 110.019 422.232V465H88.5625V424.824C88.5625 417.912 87.6505 413.016 85.8265 410.136C84.0025 407.256 80.5945 405.816 75.6025 405.816C74.0665 405.816 72.4345 405.912 70.7065 406.104C68.9785 406.2 67.4425 406.344 66.0985 406.536V465H44.6425V391.848ZM162.271 353.256C166.303 353.256 169.999 353.688 173.359 354.552C176.719 355.32 179.311 356.088 181.135 356.856L176.959 373.992C175.039 373.128 172.927 372.504 170.623 372.12C168.415 371.64 166.351 371.4 164.431 371.4C161.839 371.4 159.631 371.784 157.807 372.552C156.079 373.224 154.687 374.184 153.631 375.432C152.671 376.68 151.951 378.168 151.471 379.896C151.087 381.624 150.895 383.496 150.895 385.512V389.256H177.391V407.112H150.895V465H129.439V385.224C129.439 375.432 132.175 367.656 137.647 361.896C143.215 356.136 151.423 353.256 162.271 353.256ZM259.912 426.984C259.912 432.936 259.048 438.408 257.32 443.4C255.592 448.296 253.096 452.52 249.832 456.072C246.568 459.528 242.632 462.216 238.024 464.136C233.512 466.056 228.424 467.016 222.76 467.016C217.192 467.016 212.104 466.056 207.496 464.136C202.984 462.216 199.096 459.528 195.832 456.072C192.568 452.52 190.024 448.296 188.2 443.4C186.376 438.408 185.464 432.936 185.464 426.984C185.464 421.032 186.376 415.608 188.2 410.712C190.12 405.816 192.712 401.64 195.976 398.184C199.336 394.728 203.272 392.04 207.784 390.12C212.392 388.2 217.384 387.24 222.76 387.24C228.232 387.24 233.224 388.2 237.736 390.12C242.344 392.04 246.28 394.728 249.544 398.184C252.808 401.64 255.352 405.816 257.176 410.712C259 415.608 259.912 421.032 259.912 426.984ZM238.024 426.984C238.024 420.36 236.68 415.176 233.992 411.432C231.4 407.592 227.656 405.672 222.76 405.672C217.864 405.672 214.072 407.592 211.384 411.432C208.696 415.176 207.352 420.36 207.352 426.984C207.352 433.608 208.696 438.888 211.384 442.824C214.072 446.664 217.864 448.584 222.76 448.584C227.656 448.584 231.4 446.664 233.992 442.824C236.68 438.888 238.024 433.608 238.024 426.984ZM306.773 466.44C300.533 466.344 295.445 465.672 291.509 464.424C287.669 463.176 284.597 461.448 282.293 459.24C280.085 456.936 278.549 454.2 277.685 451.032C276.917 447.768 276.533 444.12 276.533 440.088V356.712L297.989 353.256V435.768C297.989 437.688 298.133 439.416 298.421 440.952C298.709 442.488 299.237 443.784 300.005 444.84C300.869 445.896 302.069 446.76 303.605 447.432C305.141 448.104 307.205 448.536 309.797 448.728L306.773 466.44ZM343.552 465H322.096V389.256H343.552V465ZM345.568 367.368C345.568 371.304 344.272 374.424 341.68 376.728C339.184 378.936 336.208 380.04 332.752 380.04C329.296 380.04 326.272 378.936 323.68 376.728C321.184 374.424 319.936 371.304 319.936 367.368C319.936 363.432 321.184 360.36 323.68 358.152C326.272 355.848 329.296 354.696 332.752 354.696C336.208 354.696 339.184 355.848 341.68 358.152C344.272 360.36 345.568 363.432 345.568 367.368ZM412.249 426.552C412.249 412.728 407.161 405.816 396.985 405.816C394.777 405.816 392.569 406.104 390.361 406.68C388.249 407.256 386.521 407.976 385.177 408.84V447.864C386.233 448.056 387.577 448.248 389.209 448.44C390.841 448.536 392.617 448.584 394.537 448.584C400.393 448.584 404.809 446.568 407.785 442.536C410.761 438.504 412.249 433.176 412.249 426.552ZM434.137 427.128C434.137 433.176 433.225 438.648 431.401 443.544C429.673 448.44 427.129 452.616 423.769 456.072C420.409 459.528 416.281 462.216 411.385 464.136C406.489 465.96 400.921 466.872 394.681 466.872C392.089 466.872 389.353 466.728 386.473 466.44C383.689 466.248 380.905 465.96 378.121 465.576C375.433 465.192 372.841 464.76 370.345 464.28C367.849 463.704 365.641 463.128 363.721 462.552V356.712L385.177 353.256V390.984C387.577 389.928 390.073 389.112 392.665 388.536C395.257 387.96 398.041 387.672 401.017 387.672C406.393 387.672 411.145 388.632 415.273 390.552C419.401 392.376 422.857 395.016 425.641 398.472C428.425 401.928 430.537 406.104 431.977 411C433.417 415.8 434.137 421.176 434.137 427.128ZM496.275 408.264C494.355 407.784 492.099 407.304 489.507 406.824C486.915 406.248 484.131 405.96 481.155 405.96C479.811 405.96 478.179 406.104 476.259 406.392C474.435 406.584 473.043 406.824 472.083 407.112V465H450.627V393.288C454.467 391.944 458.979 390.696 464.163 389.544C469.443 388.296 475.299 387.672 481.731 387.672C482.883 387.672 484.275 387.768 485.907 387.96C487.539 388.056 489.171 388.248 490.803 388.536C492.435 388.728 494.067 389.016 495.699 389.4C497.331 389.688 498.723 390.072 499.875 390.552L496.275 408.264ZM532.833 465H511.377V389.256H532.833V465ZM534.849 367.368C534.849 371.304 533.553 374.424 530.961 376.728C528.465 378.936 525.489 380.04 522.033 380.04C518.577 380.04 515.553 378.936 512.961 376.728C510.465 374.424 509.217 371.304 509.217 367.368C509.217 363.432 510.465 360.36 512.961 358.152C515.553 355.848 518.577 354.696 522.033 354.696C525.489 354.696 528.465 355.848 530.961 358.152C533.553 360.36 534.849 363.432 534.849 367.368Z" fill="#838383"/>
<path d="M247.35 104L381.701 169.35L247.35 236.5L113 169.35L247.35 104Z" fill="#AEAEAE"/>
<path d="M247.35 146L381.701 211.35L247.35 278.5L113 211.35L247.35 146Z" fill="#AEAEAE"/>
<path d="M247.35 72.5L381.701 124.35L276.437 176.962C257.945 186.205 236.372 187.052 217.212 179.29L119 139.5L247.35 72.5Z" fill="#2B6CB0"/>
<path d="M113 153.173C113 139.78 127.104 131.078 139.074 137.085L208.925 172.141C233.199 184.323 261.801 184.323 286.075 172.141L382 124V169.5L286.075 217.641C261.801 229.823 233.199 229.823 208.925 217.641L113 169.5V153.173Z" fill="#4299E1"/>
<path d="M113 198.173C113 184.78 127.104 176.078 139.074 182.085L208.925 217.141C233.199 229.323 261.801 229.323 286.075 217.141L382 169V214.5L286.075 262.641C261.801 274.823 233.199 274.823 208.925 262.641L113 214.5V198.173Z" fill="#5CAEF1"/>
<path d="M113 240.173C113 226.78 127.104 218.078 139.074 224.085L208.925 259.141C233.199 271.323 261.801 271.323 286.075 259.141L382 211V256.5L286.075 304.641C261.801 316.823 233.199 316.823 208.925 304.641L113 256.5V240.173Z" fill="#A8DCE3"/>
</svg>

